[comment encoding = UTF-8 /]
[module generate('masml')]

[template public generateJava(c : EnvironmentClass)]
[comment @main /]
[file (c.name + '.java', false, 'UTF-8')]
import jamder.environment;
import jamder.Organization;
import jamder.roles.AgentRole;
import jamder.agents.GenericAgent;
import jamder.behavioural.*;
public class [c.name /] extends Environment {
  public [c.name /] (String name, String host, String port) {
	super(name, host, port);
    [for(i : Inhabit | c.inhabit)]
      [let organ : OrganizationClass = i.org.name]
       [if (i.org -> size() > 0) ]
    	  Organization [organ.name/] = new Organization("[organ.name/]", this, null);
          addOrganization("[organ.name/]", [organ.name/]);
          [if (i.org.play -> size() > 0) ]
          [let ar : AgentRoleClass = i.org.play.agentRole]
            AgentRole [ar.name/] = new AgentRole("[ar.name/]", [ar.ownership.owner.name/], [organ.name/]);
          [/let]  [/if]
          
    	  [for(ow : Ownership | i.org.ownership)]
		    [for(ob : ObjectRoleClass | ow.objectRole)]
		      Object [ob.play.name/] = new Object();
		      addObject("[ob.name/]", [ob.name/]); 
		      ObjectRole [ob.name/] = new ObjectRole("[ob.name/]", [organ.name/], [ob.play.name/]);
		    [/for]
    	  [/for]      
	   [/if]
      [/let]
    [/for]
    
    [for(i : Inhabit | c.inhabit)]
       [if (i.agentClass -> size() > 0) ]
          [let a : AgentClass = i.agentClass]
    	  GenericAgent [a.name /] = new [a.name /]("[a.name /]", this, null);
          AgentRole [a.play.agentRole.name/] = new AgentRole("[a.play.agentRole.name/]", [a.play.agentRole.ownership.owner.name/], [a.name/]); 
          addAgent("[a.name /]", [a.name /]);
          [/let]
       [/if]
    [/for]
  }  
  // Additional attributes
  [for(p : Property | c.ownedProperty)] 
     [p.visibility/] [p.type.toString()/] [p.name/]; 
  [/for]
  
  // Additional methods
  [for(o : Operation | c.ownedOperation)]
     [o.visibility /] [o.returnValue /] [o.name /] 
        ([for(p:Parameter | o.parameter) separator(',')] [p.type/] [p.name/] [/for]) {}
  [/for]
}
[/file]
[/template]
